ERAHUMED Data Analysis and Visualization • erahumed
…
model <- model |> compute_inp() |> compute_hba()
model
#> An ERAHUMED model.
#> Calculated components:  inp, hba

We can extract and inspect model components as illustrated in the following examples:

hba(model)  # Extract the HBA model component
#> An ERAHUMED HBA model component.
#> 
#> Output columns: level, precipitation_mm, evapotranspiration_mm, date, is_imputed_level, is_imputed_outflow, volume, volume_change, volume_change_petp, outflow_pujol, outflow_perellonet, outflow_perello, outflow_extra, outflow_total, inflow_total, residence_time_days
hba(model) |> 
  component_output() |>  # Get output data.frame
  tibble::as_tibble()    # Just for pretty printing
#> # A tibble: 6,139 × 16
#>    level precipitation_mm evapotranspiration_mm date       is_imputed_level
#>    <dbl>   <dbl>                 <dbl> <date>     <lgl>           
#>  1 0.372     8.2                  0.54 2005-12-20 FALSE           
#>  2 0.373     0.2                  0.65 2005-12-21 FALSE           
#>  3 0.368     0.2                  0.62 2005-12-22 FALSE           
#>  4 0.366     0.2                  1.02 2005-12-23 FALSE           
#>  5 0.367     0                    0.59 2005-12-24 FALSE           
#>  6 0.363     0.2                  0.86 2005-12-25 FALSE           
#>  7 0.357     0.2                  0.63 2005-12-26 FALSE           
#>  8 0.370     0                    1.96 2005-12-27 FALSE           
#>  9 0.346     0                    0.95 2005-12-28 FALSE           
#> 10 0.347     0                    1.37 2005-12-29 FALSE           
#> # ℹ 6,129 more rows
#> # ℹ 11 more variables: is_imputed_outflow <lgl>, volume <dbl>,
#> #   volume_change <dbl>, volume_change_petp <dbl>, outflow_pujol <dbl>,
#> #   outflow_perellonet <dbl>, outflow_perello <dbl>, outflow_extra <dbl>,
#> #   outflow_total <dbl>, inflow_total <dbl>, residence_time_days <dbl>
…
