ERAHUMED simulation interface — erahumed_simulation_interface • erahumed
…
#> 4           3.180986        2.763805                     0     11.355127
#> 5           1.578490        1.226585                     0      3.860835
#> 6           3.786494        3.249450                     0     13.958823
#>   inflow_total residence_time_days
#> 1     1.138934            21.01039
#> 2    11.127050            20.97162
#> 3     8.170538            20.97415
#> 4    12.165665            20.92734
#> 5     3.512866            20.92254
#> 6    12.663471            20.86514
get_layer_output(s, "hbp")  # NULL because not yet computed
#> NULL
get_layer_parameters(s, "ca")  # Layer parameters set during initialization
#> $ca_schedules_df
#> # A tibble: 29 × 5
#>      day rice_variety chemical    kg_per_ha application_type
#>    <dbl> <chr>        <chr>           <dbl> <chr>           
#>  1    51 J.Sendra     Acetamiprid      0.03 ground          
#>  2    51 Bomba        Acetamiprid      0.03 ground          
#>  3    51 Clearfield   Acetamiprid      0.03 ground          
#>  4    51 J.Sendra     Benta            1    ground          
#>  5    51 Bomba        Benta            1    ground          
#>  6    51 J.Sendra     MCPA             0.5  ground          
#>  7    51 Bomba        MCPA             0.5  ground          
#>  8    21 J.Sendra     Penoxulam        0.04 ground          
#>  9    21 Bomba        Penoxulam        0.04 ground          
#> 10     7 J.Sendra     Cyhalo           0.3  ground          
#> # ℹ 19 more rows
…
